{
    "service": {
        "name": "script",
        "id": "script-{{uuid}}",
        "tags": [
            "urlprefix-tm-legalservices.financial-cloud.com/app/script strip=/app/script",
            "urlprefix-www.tm-legalservices.financial-cloud.com/app/script strip=/app/script",            
            "urlprefix-assetcollections.financial-cloud.com/app/script strip=/app/script",            
            "urlprefix-www.assetcollections.financial-cloud.com/app/script strip=/app/script",
            "urlprefix-scottish-assets-partnership.financial-cloud.com/app/script strip=/app/script",
            "urlprefix-glabs-test-site.co.uk/app/script strip=/app/script",
            "urlprefix-glabstest.com/app/script strip=/app/script",            
            "urlprefix-glabstest2.com/app/script strip=/app/script",            
            "urlprefix-/app/script strip=/app/script"                                       
        ],
        "address": "",
        "port": 3001,
        "enable_tag_override": false,
        "checks": [
            {
                "id": "api",
                "name": "HTTP API on port 3001",
                "http": "http://localhost:3001/heartbeat",
                "tls_skip_verify": false,
                "method": "GET",
                "interval": "10s",
                "timeout": "1s",
                "service_id": "script-{{uuid}}"   
            }
        ]
    }
}